Chapter 3 数据整理和总结 | R语言入门
…
用select()选择列

如果我们愿意，我们可以使用该select()函数选择其中一列。下面我们只选择标题为manufacturer的列。

mpg %>%
  select(manufacturer)

## # A tibble: 234 × 1
##    manufacturer
##    <chr>       
##  1 audi        
##  2 audi        
##  3 audi        
##  4 audi        
##  5 audi        
##  6 audi        
##  7 audi        
##  8 audi        
##  9 audi        
## 10 audi        
## # ℹ 224 more rows
…
## # A tibble: 1 × 1
##       n
##   <int>
## 1    15

整理数据集

整理变量名称

目前，汽车制造商名称均为小写。如果它们采用标题大小写（即每个单词的第一个字母大写），看起来会好得多。我们可以使用该mutate()函数创建一个新列 - 这次，新列的名称,即是我们要使用该str_to_title()函数修改旧列的名称。这将覆盖该列并将manufacturer其替换为首字母大写的新版本。

mpg %>%
  mutate(manufacturer = str_to_title(manufacturer))

## # A tibble: 234 × 11
##    manufacturer model      displ  year   cyl trans drv     cty   hwy fl    class
##    <chr>        <chr>      <dbl> <int> <int> <chr> <chr> <int> <int> <chr> <chr>
##  1 Audi         a4           1.8  1999     4 auto… f        18    29 p     comp…
##  2 Audi         a4           1.8  1999     4 manu… f        21    29 p     comp…
##  3 Audi         a4           2    2008     4 manu… f        20    31 p     comp…
##  4 Audi         a4           2    2008     4 auto… f        21    30 p     comp…
##  5 Audi         a4           2.8  1999     6 auto… f        16    26 p     comp…
##  6 Audi         a4           2.8  1999     6 manu… f        18    26 p     comp…
##  7 Audi         a4           3.1  2008     6 auto… f        18    27 p     comp…
##  8 Audi         a4 quattro   1.8  1999     4 manu… 4        18    26 p     comp…
##  9 Audi         a4 quattro   1.8  1999     4 auto… 4        16    25 p     comp…
## 10 Audi         a4 quattro   2    2008     4 manu… 4        20    28 p     comp…
## # ℹ 224 more rows

列model也是小写的。我们也来让他首字母大写。我们可以使用该mutate()函数同时处理多个列，如下所示：

mpg %>%
  mutate(manufacturer = str_to_title(manufacturer), model = str_to_title(model))

## # A tibble: 234 × 11
##    manufacturer model      displ  year   cyl trans drv     cty   hwy fl    class
##    <chr>        <chr>      <dbl> <int> <int> <chr> <chr> <int> <int> <chr> <chr>
##  1 Audi         A4           1.8  1999     4 auto… f        18    29 p     comp…
##  2 Audi         A4           1.8  1999     4 manu… f        21    29 p     comp…
##  3 Audi         A4           2    2008     4 manu… f        20    31 p     comp…
##  4 Audi         A4           2    2008     4 auto… f        21    30 p     comp…
##  5 Audi         A4           2.8  1999     6 auto… f        16    26 p     comp…
##  6 Audi         A4           2.8  1999     6 manu… f        18    26 p     comp…
##  7 Audi         A4           3.1  2008     6 auto… f        18    27 p     comp…
##  8 Audi         A4 Quattro   1.8  1999     4 manu… 4        18    26 p     comp…
##  9 Audi         A4 Quattro   1.8  1999     4 auto… 4        16    25 p     comp…
## 10 Audi         A4 Quattro   2    2008     4 manu… 4        20    28 p     comp…
## # ℹ 224 more rows

数据集里有很多列，所以我们只选择manufacturer, model, year, transmission 和 hwy列：

mpg %>%
  mutate(manufacturer = str_to_title(manufacturer), model = str_to_title(model)) %>%
  select(manufacturer, model, year, trans, hwy)

## # A tibble: 234 × 5
##    manufacturer model       year trans        hwy
##    <chr>        <chr>      <int> <chr>      <int>
##  1 Audi         A4          1999 auto(l5)      29
##  2 Audi         A4          1999 manual(m5)    29
##  3 Audi         A4          2008 manual(m6)    31
##  4 Audi         A4          2008 auto(av)      30
##  5 Audi         A4          1999 auto(l5)      26
##  6 Audi         A4          1999 manual(m5)    26
##  7 Audi         A4          2008 auto(av)      27
##  8 Audi         A4 Quattro  1999 manual(m5)    26
##  9 Audi         A4 Quattro  1999 auto(l5)      25
## 10 Audi         A4 Quattro  2008 manual(m6)    28
## # ℹ 224 more rows
…
我们现在需要将我们的条件列分成两个 - 一个用于我们的第一个因素（Prime），另一个用于我们的第二个因素（Target）。separate() 函数正是做这个的 — 当与管道化的tibble一起使用时，它需要知道我们想要分离哪一列，通过分离原始列来创建什么新列，以及我们想要基于什么来进行分离。在下面的示例中，我们告诉 separate() 我们想要将标记为 condition 的列分成两个新列，称为 Prime 和 Target，并且我们想要在要被分离的列中出现 _ 的任何地方进行这种分离。

my_messy_data %>% 
  mutate(condition = recode(condition,
                            "1" = "PrimeA_TargetA",
                            "2" = "PrimeA_TargetB", 
                            "3" = "PrimeB_TargetA", 
                            "4" = "PrimeB_TargetB")) %>%
  separate(col = "condition", into = c("Prime", "Target"), sep = "_")

## # A tibble: 96 × 4
##    participant Prime  Target     rt
##          <dbl> <chr>  <chr>   <dbl>
##  1           1 PrimeA TargetA   879
##  2           1 PrimeA TargetB  1027
##  3           1 PrimeB TargetA  1108
##  4           1 PrimeB TargetB   765
##  5           2 PrimeA TargetA  1042
##  6           2 PrimeA TargetB  1050
##  7           2 PrimeB TargetA   942
##  8           2 PrimeB TargetB   945
##  9           3 PrimeA TargetA   943
## 10           3 PrimeA TargetB   910
## # ℹ 86 more rows

my_messy_data %>% 
  mutate(condition = recode(condition,
                            "1" = "PrimeA_TargetA",
                            "2" = "PrimeA_TargetB", 
                            "3" = "PrimeB_TargetA", 
                            "4" = "PrimeB_TargetB")) %>%
  separate(col = "condition", into = c("Prime", "Target"), sep = "_") %>%
  mutate(Prime = factor(Prime), Target = factor(Target))

## # A tibble: 96 × 4
##    participant Prime  Target     rt
##          <dbl> <fct>  <fct>   <dbl>
##  1           1 PrimeA TargetA   879
##  2           1 PrimeA TargetB  1027
##  3           1 PrimeB TargetA  1108
##  4           1 PrimeB TargetB   765
##  5           2 PrimeA TargetA  1042
##  6           2 PrimeA TargetB  1050
##  7           2 PrimeB TargetA   942
##  8           2 PrimeB TargetB   945
##  9           3 PrimeA TargetA   943
## 10           3 PrimeA TargetB   910
## # ℹ 86 more rows
…
完全合并

我们可以使用其中一个连接函数来组合。有多种选择，包括 full_join()，它包括了我们想要连接的第一个或第二个 tibble 中的所有行。其他选项包括 inner_join()，它包括了第一个和第二个 tibble 中的所有行，以及 left_join() 和 right_join()。

combined_data <- full_join(my_longer_data, individual_diffs, by = "ID")

我们现在看到我们的数据集按照我们的预期组合在一起了。

combined_data

## # A tibble: 128 × 5
##       ID Condition     RT    iq    wm
##    <dbl> <chr>      <dbl> <dbl> <dbl>
##  1     1 Condition1   487   100     9
##  2     1 Condition2   492   100     9
##  3     1 Condition3   499   100     9
##  4     1 Condition4   488   100     9
##  5     2 Condition1   502   108     8
##  6     2 Condition2   494   108     8
##  7     2 Condition3   517   108     8
##  8     2 Condition4   508   108     8
##  9     3 Condition1   510   116     9
## 10     3 Condition2   483   116     9
## # ℹ 118 more rows
…
## # A tibble: 6 × 3
##      ID    iq    wm
##   <dbl> <dbl> <dbl>
## 1  6057    93     7
## 2  2723    86     7
## 3  1088    97     9
## 4  8687    87     8
## 5  4223    77    11
## 6   369    95     9

我们实际上可以使用另一个连接函数（left_join()）来组合这两个数据集，但只在第一个数据集（函数调用中的my_longer_data）的ID与另一个数据集匹配的情况下进行组合。

left_join(my_longer_data, large_ind_diffs, by = "ID")

## # A tibble: 128 × 5
##       ID Condition     RT    iq    wm
##    <dbl> <chr>      <dbl> <dbl> <dbl>
##  1     1 Condition1   487   100     9
##  2     1 Condition2   492   100     9
##  3     1 Condition3   499   100     9
##  4     1 Condition4   488   100     9
##  5     2 Condition1   502   108     8
##  6     2 Condition2   494   108     8
##  7     2 Condition3   517   108     8
##  8     2 Condition4   508   108     8
##  9     3 Condition1   510   116     9
## 10     3 Condition2   483   116     9
## # ℹ 118 more rows
…
在summarise_if()中的第一个参数是应用于每一列的逻辑测试 - 在这种情况下，如果一列是数值（即，一个数字） - 那么测试结果为TRUE，然后应用第二个函数mean。同样，我们告诉R忽略缺失的（NA）数据值，使用na.rm = TRUE参数。

R函数在参数方面有所不同。我经常忘记它们,如果你开始输入一个函数名，你会在你输入的位置上方得到一个小气泡，提醒你需要哪些参数。如果你记不住细节，你可以在控制台中键入help(function_name)或?function_name来获取任何需要帮助的函数的帮助。使用R（或Python或任何其他语言）进行大量的数据分析通常需要大量的搜索。这是正常的。有些东西我永远记不住，总是不得不查一下！

使用mutate()添加列

我们可以使用mutate()函数像这样添加一个新的列，我称之为mean_hwy。

mpg %>% 
  group_by(manufacturer) %>%
  mutate(mean_hwy = mean(hwy), sd_hwy = sd(hwy))

## # A tibble: 234 × 13
## # Groups:   manufacturer [15]
##    manufacturer model      displ  year   cyl trans drv     cty   hwy fl    class
##    <chr>        <chr>      <dbl> <int> <int> <chr> <chr> <int> <int> <chr> <chr>
##  1 audi         a4           1.8  1999     4 auto… f        18    29 p     comp…
##  2 audi         a4           1.8  1999     4 manu… f        21    29 p     comp…
##  3 audi         a4           2    2008     4 manu… f        20    31 p     comp…
##  4 audi         a4           2    2008     4 auto… f        21    30 p     comp…
##  5 audi         a4           2.8  1999     6 auto… f        16    26 p     comp…
##  6 audi         a4           2.8  1999     6 manu… f        18    26 p     comp…
##  7 audi         a4           3.1  2008     6 auto… f        18    27 p     comp…
##  8 audi         a4 quattro   1.8  1999     4 manu… 4        18    26 p     comp…
##  9 audi         a4 quattro   1.8  1999     4 auto… 4        16    25 p     comp…
## 10 audi         a4 quattro   2    2008     4 manu… 4        20    28 p     comp…
## # ℹ 224 more rows
## # ℹ 2 more variables: mean_hwy <dbl>, sd_hwy <dbl>

我们在这个页面上有太多的列要显示，所以我们可以通过稍微不同地使用select()函数来删除一些列。通过在select()中的列名前面加上-符号，我们最终删除了它。

mpg %>% 
  group_by(manufacturer) %>%
  mutate(mean_hwy = mean(hwy), sd_hwy = sd(hwy)) %>%
  select(-class, -trans)

## # A tibble: 234 × 11
## # Groups:   manufacturer [15]
##    manufacturer model  displ  year   cyl drv     cty   hwy fl    mean_hwy sd_hwy
##    <chr>        <chr>  <dbl> <int> <int> <chr> <int> <int> <chr>    <dbl>  <dbl>
##  1 audi         a4       1.8  1999     4 f        18    29 p         26.4   2.18
##  2 audi         a4       1.8  1999     4 f        21    29 p         26.4   2.18
##  3 audi         a4       2    2008     4 f        20    31 p         26.4   2.18
##  4 audi         a4       2    2008     4 f        21    30 p         26.4   2.18
##  5 audi         a4       2.8  1999     6 f        16    26 p         26.4   2.18
##  6 audi         a4       2.8  1999     6 f        18    26 p         26.4   2.18
##  7 audi         a4       3.1  2008     6 f        18    27 p         26.4   2.18
##  8 audi         a4 qu…   1.8  1999     4 4        18    26 p         26.4   2.18
##  9 audi         a4 qu…   1.8  1999     4 4        16    25 p         26.4   2.18
## 10 audi         a4 qu…   2    2008     4 4        20    28 p         26.4   2.18
## # ℹ 224 more rows
…
